{
    "ok": true,
    "files": [
        {
            "id": "F1J2KA3PU",
            "created": 1466195686,
            "timestamp": 1466195686,
            "name": "aryVNJLGQxPoI.gif",
            "title": "Xcode Extension",
            "mimetype": "image\/gif",
            "filetype": "gif",
            "pretty_type": "GIF",
            "user": "U0G27AA7N",
            "editable": false,
            "size": 448202,
            "mode": "hosted",
            "is_external": false,
            "external_type": "",
            "is_public": true,
            "public_url_shared": false,
            "display_as_bot": false,
            "username": "",
            "url_private": "https:\/\/files.slack.com\/files-pri\/T0BLJ117W-F1J2KA3PU\/aryvnjlgqxpoi.gif",
            "url_private_download": "https:\/\/files.slack.com\/files-pri\/T0BLJ117W-F1J2KA3PU\/download\/aryvnjlgqxpoi.gif",
            "thumb_64": "https:\/\/files.slack.com\/files-tmb\/T0BLJ117W-F1J2KA3PU-1722e4b426\/aryvnjlgqxpoi_64.png",
            "thumb_80": "https:\/\/files.slack.com\/files-tmb\/T0BLJ117W-F1J2KA3PU-1722e4b426\/aryvnjlgqxpoi_80.png",
            "thumb_360": "https:\/\/files.slack.com\/files-tmb\/T0BLJ117W-F1J2KA3PU-1722e4b426\/aryvnjlgqxpoi_360.png",
            "thumb_360_w": 360,
            "thumb_360_h": 213,
            "thumb_160": "https:\/\/files.slack.com\/files-tmb\/T0BLJ117W-F1J2KA3PU-1722e4b426\/aryvnjlgqxpoi_160.png",
            "thumb_360_gif": "https:\/\/files.slack.com\/files-tmb\/T0BLJ117W-F1J2KA3PU-1722e4b426\/aryvnjlgqxpoi_360.gif",
            "image_exif_rotation": 1,
            "original_w": 480,
            "original_h": 284,
            "permalink": "https:\/\/here-ios.slack.com\/files\/cordeiro\/F1J2KA3PU\/aryvnjlgqxpoi.gif",
            "permalink_public": "https:\/\/slack-files.com\/T0BLJ117W-F1J2KA3PU-43f88f9bd5",
            "channels": [
                "C0BLLA8G5"
            ],
            "groups": [

            ],
            "ims": [

            ],
            "comments_count": 1,
            "initial_comment": {
                "id": "Fc1J28SKL5",
                "created": 1466195686,
                "timestamp": 1466195686,
                "user": "U0G27AA7N",
                "is_intro": true,
                "comment": "My first Xcode 8 extension :-) Add missing #import",
                "channel": ""
            }
        },
        {
            "id": "F1HQ66UAE",
            "created": 1466138369,
            "timestamp": 1466138369,
            "name": "Screenshot 2016-06-17 06.39.23.png",
            "title": "Screenshot 2016-06-17 06.39.23.png",
            "mimetype": "image\/png",
            "filetype": "png",
            "pretty_type": "PNG",
            "user": "U0BLHVC4B",
            "editable": false,
            "size": 205052,
            "mode": "external",
            "is_external": true,
            "external_type": "dropbox",
            "is_public": true,
            "public_url_shared": false,
            "display_as_bot": false,
            "username": "",
            "url_private": "https:\/\/www.dropbox.com\/s\/6wfgfecfjkhxg9b\/Screenshot%202016-06-17%2006.39.23.png?dl=0",
            "thumb_64": "https:\/\/files.slack.com\/files-tmb\/T0BLJ117W-F1HQ66UAE-f59e98e9d6\/screenshot_2016-06-17_06.39.23_64.png",
            "thumb_80": "https:\/\/files.slack.com\/files-tmb\/T0BLJ117W-F1HQ66UAE-f59e98e9d6\/screenshot_2016-06-17_06.39.23_80.png",
            "thumb_360": "https:\/\/files.slack.com\/files-tmb\/T0BLJ117W-F1HQ66UAE-f59e98e9d6\/screenshot_2016-06-17_06.39.23_360.png",
            "thumb_360_w": 360,
            "thumb_360_h": 94,
            "thumb_480": "https:\/\/files.slack.com\/files-tmb\/T0BLJ117W-F1HQ66UAE-f59e98e9d6\/screenshot_2016-06-17_06.39.23_480.png",
            "thumb_480_w": 480,
            "thumb_480_h": 125,
            "thumb_160": "https:\/\/files.slack.com\/files-tmb\/T0BLJ117W-F1HQ66UAE-f59e98e9d6\/screenshot_2016-06-17_06.39.23_160.png",
            "thumb_720": "https:\/\/files.slack.com\/files-tmb\/T0BLJ117W-F1HQ66UAE-f59e98e9d6\/screenshot_2016-06-17_06.39.23_720.png",
            "thumb_720_w": 720,
            "thumb_720_h": 188,
            "thumb_960": "https:\/\/files.slack.com\/files-tmb\/T0BLJ117W-F1HQ66UAE-f59e98e9d6\/screenshot_2016-06-17_06.39.23_960.png",
            "thumb_960_w": 960,
            "thumb_960_h": 251,
            "thumb_1024": "https:\/\/files.slack.com\/files-tmb\/T0BLJ117W-F1HQ66UAE-f59e98e9d6\/screenshot_2016-06-17_06.39.23_1024.png",
            "thumb_1024_w": 1024,
            "thumb_1024_h": 267,
            "image_exif_rotation": 1,
            "original_w": 1096,
            "original_h": 286,
            "permalink": "https:\/\/here-ios.slack.com\/files\/daniel.barden\/F1HQ66UAE\/screenshot_2016-06-17_06.39.23.png",
            "channels": [
                "C0EES32N8"
            ],
            "groups": [

            ],
            "ims": [

            ],
            "comments_count": 0,
            "reactions": [
                {
                    "name": "+1::skin-tone-3",
                    "users": [
                        "U0X75K268",
                        "U0G27AA7N",
                        "U0GJ4ALJF",
                        "U0KG5UZ8X"
                    ],
                    "count": 4
                }
            ]
        },
        {
            "id": "F1HNEN6Q3",
            "created": 1466138304,
            "timestamp": 1466138304,
            "name": "Screenshot 2016-06-17 06.35.19.png",
            "title": "Screenshot 2016-06-17 06.35.19.png",
            "mimetype": "image\/png",
            "filetype": "png",
            "pretty_type": "PNG",
            "user": "U0BLHVC4B",
            "editable": false,
            "size": 1148266,
            "mode": "external",
            "is_external": true,
            "external_type": "dropbox",
            "is_public": true,
            "public_url_shared": false,
            "display_as_bot": false,
            "username": "",
            "url_private": "https:\/\/www.dropbox.com\/s\/izcdf0lxj4yg3t5\/Screenshot%202016-06-17%2006.35.19.png?dl=0",
            "thumb_64": "https:\/\/files.slack.com\/files-tmb\/T0BLJ117W-F1HNEN6Q3-d0a3cacba5\/screenshot_2016-06-17_06.35.19_64.png",
            "thumb_80": "https:\/\/files.slack.com\/files-tmb\/T0BLJ117W-F1HNEN6Q3-d0a3cacba5\/screenshot_2016-06-17_06.35.19_80.png",
            "thumb_360": "https:\/\/files.slack.com\/files-tmb\/T0BLJ117W-F1HNEN6Q3-d0a3cacba5\/screenshot_2016-06-17_06.35.19_360.png",
            "thumb_360_w": 262,
            "thumb_360_h": 360,
            "thumb_480": "https:\/\/files.slack.com\/files-tmb\/T0BLJ117W-F1HNEN6Q3-d0a3cacba5\/screenshot_2016-06-17_06.35.19_480.png",
            "thumb_480_w": 349,
            "thumb_480_h": 480,
            "thumb_160": "https:\/\/files.slack.com\/files-tmb\/T0BLJ117W-F1HNEN6Q3-d0a3cacba5\/screenshot_2016-06-17_06.35.19_160.png",
            "thumb_720": "https:\/\/files.slack.com\/files-tmb\/T0BLJ117W-F1HNEN6Q3-d0a3cacba5\/screenshot_2016-06-17_06.35.19_720.png",
            "thumb_720_w": 523,
            "thumb_720_h": 720,
            "thumb_960": "https:\/\/files.slack.com\/files-tmb\/T0BLJ117W-F1HNEN6Q3-d0a3cacba5\/screenshot_2016-06-17_06.35.19_960.png",
            "thumb_960_w": 697,
            "thumb_960_h": 960,
            "thumb_1024": "https:\/\/files.slack.com\/files-tmb\/T0BLJ117W-F1HNEN6Q3-d0a3cacba5\/screenshot_2016-06-17_06.35.19_1024.png",
            "thumb_1024_w": 744,
            "thumb_1024_h": 1024,
            "image_exif_rotation": 1,
            "original_w": 1200,
            "original_h": 1652,
            "permalink": "https:\/\/here-ios.slack.com\/files\/daniel.barden\/F1HNEN6Q3\/screenshot_2016-06-17_06.35.19.png",
            "channels": [
                "C0EES32N8"
            ],
            "groups": [

            ],
            "ims": [

            ],
            "comments_count": 0,
            "reactions": [
                {
                    "name": "+1",
                    "users": [
                        "U0GJ4ALJF"
                    ],
                    "count": 1
                }
            ]
        },
        {
            "id": "F1GKMGNBG",
            "created": 1465888786,
            "timestamp": 1465888786,
            "name": "IMG_0017.PNG",
            "title": "IMG_0017.PNG",
            "mimetype": "image\/png",
            "filetype": "png",
            "pretty_type": "PNG",
            "user": "U0E9J106S",
            "editable": false,
            "size": 72288,
            "mode": "hosted",
            "is_external": false,
            "external_type": "",
            "is_public": false,
            "public_url_shared": false,
            "display_as_bot": false,
            "username": "",
            "url_private": "https:\/\/files.slack.com\/files-pri\/T0BLJ117W-F1GKMGNBG\/img_0017.png",
            "url_private_download": "https:\/\/files.slack.com\/files-pri\/T0BLJ117W-F1GKMGNBG\/download\/img_0017.png",
            "thumb_64": "https:\/\/files.slack.com\/files-tmb\/T0BLJ117W-F1GKMGNBG-2a0c9b0cc2\/img_0017_64.png",
            "thumb_80": "https:\/\/files.slack.com\/files-tmb\/T0BLJ117W-F1GKMGNBG-2a0c9b0cc2\/img_0017_80.png",
            "thumb_360": "https:\/\/files.slack.com\/files-tmb\/T0BLJ117W-F1GKMGNBG-2a0c9b0cc2\/img_0017_360.png",
            "thumb_360_w": 202,
            "thumb_360_h": 360,
            "thumb_480": "https:\/\/files.slack.com\/files-tmb\/T0BLJ117W-F1GKMGNBG-2a0c9b0cc2\/img_0017_480.png",
            "thumb_480_w": 270,
            "thumb_480_h": 480,
            "thumb_160": "https:\/\/files.slack.com\/files-tmb\/T0BLJ117W-F1GKMGNBG-2a0c9b0cc2\/img_0017_160.png",
            "thumb_720": "https:\/\/files.slack.com\/files-tmb\/T0BLJ117W-F1GKMGNBG-2a0c9b0cc2\/img_0017_720.png",
            "thumb_720_w": 405,
            "thumb_720_h": 720,
            "thumb_960": "https:\/\/files.slack.com\/files-tmb\/T0BLJ117W-F1GKMGNBG-2a0c9b0cc2\/img_0017_960.png",
            "thumb_960_w": 540,
            "thumb_960_h": 960,
            "thumb_1024": "https:\/\/files.slack.com\/files-tmb\/T0BLJ117W-F1GKMGNBG-2a0c9b0cc2\/img_0017_1024.png",
            "thumb_1024_w": 576,
            "thumb_1024_h": 1024,
            "image_exif_rotation": 1,
            "original_w": 750,
            "original_h": 1334,
            "permalink": "https:\/\/here-ios.slack.com\/files\/kasvand\/F1GKMGNBG\/img_0017.png",
            "permalink_public": "https:\/\/slack-files.com\/T0BLJ117W-F1GKMGNBG-a4997314ca",
            "channels": [

            ],
            "groups": [

            ],
            "ims": [
                "D0SQEC2P4"
            ],
            "comments_count": 0
        },
        {
            "id": "F1GHU3R41",
            "created": 1465860092,
            "timestamp": 1465860092,
            "name": "Screen Shot 2016-06-14 at 1.14.23 AM.png",
            "title": "Screen Shot 2016-06-14 at 1.14.23 AM.png",
            "mimetype": "image\/png",
            "filetype": "png",
            "pretty_type": "PNG",
            "user": "U0G27AA7N",
            "editable": false,
            "size": 353424,
            "mode": "hosted",
            "is_external": false,
            "external_type": "",
            "is_public": true,
            "public_url_shared": false,
            "display_as_bot": false,
            "username": "",
            "url_private": "https:\/\/files.slack.com\/files-pri\/T0BLJ117W-F1GHU3R41\/screen_shot_2016-06-14_at_1.14.23_am.png",
            "url_private_download": "https:\/\/files.slack.com\/files-pri\/T0BLJ117W-F1GHU3R41\/download\/screen_shot_2016-06-14_at_1.14.23_am.png",
            "thumb_64": "https:\/\/files.slack.com\/files-tmb\/T0BLJ117W-F1GHU3R41-df526d0d98\/screen_shot_2016-06-14_at_1.14.23_am_64.png",
            "thumb_80": "https:\/\/files.slack.com\/files-tmb\/T0BLJ117W-F1GHU3R41-df526d0d98\/screen_shot_2016-06-14_at_1.14.23_am_80.png",
            "thumb_360": "https:\/\/files.slack.com\/files-tmb\/T0BLJ117W-F1GHU3R41-df526d0d98\/screen_shot_2016-06-14_at_1.14.23_am_360.png",
            "thumb_360_w": 360,
            "thumb_360_h": 308,
            "thumb_480": "https:\/\/files.slack.com\/files-tmb\/T0BLJ117W-F1GHU3R41-df526d0d98\/screen_shot_2016-06-14_at_1.14.23_am_480.png",
            "thumb_480_w": 480,
            "thumb_480_h": 411,
            "thumb_160": "https:\/\/files.slack.com\/files-tmb\/T0BLJ117W-F1GHU3R41-df526d0d98\/screen_shot_2016-06-14_at_1.14.23_am_160.png",
            "thumb_720": "https:\/\/files.slack.com\/files-tmb\/T0BLJ117W-F1GHU3R41-df526d0d98\/screen_shot_2016-06-14_at_1.14.23_am_720.png",
            "thumb_720_w": 720,
            "thumb_720_h": 616,
            "thumb_960": "https:\/\/files.slack.com\/files-tmb\/T0BLJ117W-F1GHU3R41-df526d0d98\/screen_shot_2016-06-14_at_1.14.23_am_960.png",
            "thumb_960_w": 960,
            "thumb_960_h": 821,
            "thumb_1024": "https:\/\/files.slack.com\/files-tmb\/T0BLJ117W-F1GHU3R41-df526d0d98\/screen_shot_2016-06-14_at_1.14.23_am_1024.png",
            "thumb_1024_w": 1024,
            "thumb_1024_h": 876,
            "image_exif_rotation": 1,
            "original_w": 1920,
            "original_h": 1642,
            "permalink": "https:\/\/here-ios.slack.com\/files\/cordeiro\/F1GHU3R41\/screen_shot_2016-06-14_at_1.14.23_am.png",
            "permalink_public": "https:\/\/slack-files.com\/T0BLJ117W-F1GHU3R41-1e7f34845d",
            "channels": [
                "C0BLLA8G5"
            ],
            "groups": [

            ],
            "ims": [

            ],
            "comments_count": 1,
            "initial_comment": {
                "id": "Fc1GHCBUEQ",
                "created": 1465860092,
                "timestamp": 1465860092,
                "user": "U0G27AA7N",
                "is_intro": true,
                "comment": "Apparently Apple and I agree on something ;-)",
                "channel": ""
            },
            "reactions": [
                {
                    "name": "+1",
                    "users": [
                        "U0DLC3X8E"
                    ],
                    "count": 1
                }
            ]
        },
        {
            "id": "F1GG7C42V",
            "created": 1465848529,
            "timestamp": 1465848529,
            "name": "2016-06-13 22.06.52.png",
            "title": "2016-06-13 22.06.52.png",
            "mimetype": "image\/png",
            "filetype": "png",
            "pretty_type": "PNG",
            "user": "U0BLHVC4B",
            "editable": false,
            "size": 138891,
            "mode": "hosted",
            "is_external": false,
            "external_type": "",
            "is_public": true,
            "public_url_shared": false,
            "display_as_bot": false,
            "username": "",
            "url_private": "https:\/\/files.slack.com\/files-pri\/T0BLJ117W-F1GG7C42V\/2016-06-13_22.06.52.png",
            "url_private_download": "https:\/\/files.slack.com\/files-pri\/T0BLJ117W-F1GG7C42V\/download\/2016-06-13_22.06.52.png",
            "thumb_64": "https:\/\/files.slack.com\/files-tmb\/T0BLJ117W-F1GG7C42V-f41965132d\/2016-06-13_22.06.52_64.png",
            "thumb_80": "https:\/\/files.slack.com\/files-tmb\/T0BLJ117W-F1GG7C42V-f41965132d\/2016-06-13_22.06.52_80.png",
            "thumb_360": "https:\/\/files.slack.com\/files-tmb\/T0BLJ117W-F1GG7C42V-f41965132d\/2016-06-13_22.06.52_360.png",
            "thumb_360_w": 202,
            "thumb_360_h": 360,
            "thumb_480": "https:\/\/files.slack.com\/files-tmb\/T0BLJ117W-F1GG7C42V-f41965132d\/2016-06-13_22.06.52_480.png",
            "thumb_480_w": 270,
            "thumb_480_h": 480,
            "thumb_160": "https:\/\/files.slack.com\/files-tmb\/T0BLJ117W-F1GG7C42V-f41965132d\/2016-06-13_22.06.52_160.png",
            "thumb_720": "https:\/\/files.slack.com\/files-tmb\/T0BLJ117W-F1GG7C42V-f41965132d\/2016-06-13_22.06.52_720.png",
            "thumb_720_w": 405,
            "thumb_720_h": 720,
            "thumb_960": "https:\/\/files.slack.com\/files-tmb\/T0BLJ117W-F1GG7C42V-f41965132d\/2016-06-13_22.06.52_960.png",
            "thumb_960_w": 540,
            "thumb_960_h": 960,
            "thumb_1024": "https:\/\/files.slack.com\/files-tmb\/T0BLJ117W-F1GG7C42V-f41965132d\/2016-06-13_22.06.52_1024.png",
            "thumb_1024_w": 576,
            "thumb_1024_h": 1024,
            "image_exif_rotation": 1,
            "original_w": 750,
            "original_h": 1334,
            "permalink": "https:\/\/here-ios.slack.com\/files\/daniel.barden\/F1GG7C42V\/2016-06-13_22.06.52.png",
            "permalink_public": "https:\/\/slack-files.com\/T0BLJ117W-F1GG7C42V-132613a4ac",
            "channels": [
                "C0G7TUB9T"
            ],
            "groups": [

            ],
            "ims": [

            ],
            "comments_count": 0
        },
        {
            "id": "F1FP74U0N",
            "created": 1465551764,
            "timestamp": 1465551764,
            "name": "Simulator Screen Shot 10 Jun 2016 11.41.56.png",
            "title": "Simulator Screen Shot 10 Jun 2016 11.41.56",
            "mimetype": "image\/png",
            "filetype": "png",
            "pretty_type": "PNG",
            "user": "U0KG6V3L0",
            "editable": false,
            "size": 140929,
            "mode": "hosted",
            "is_external": false,
            "external_type": "",
            "is_public": true,
            "public_url_shared": false,
            "display_as_bot": false,
            "username": "",
            "url_private": "https:\/\/files.slack.com\/files-pri\/T0BLJ117W-F1FP74U0N\/simulator_screen_shot_10_jun_2016_11.41.56.png",
            "url_private_download": "https:\/\/files.slack.com\/files-pri\/T0BLJ117W-F1FP74U0N\/download\/simulator_screen_shot_10_jun_2016_11.41.56.png",
            "thumb_64": "https:\/\/files.slack.com\/files-tmb\/T0BLJ117W-F1FP74U0N-d813329c7f\/simulator_screen_shot_10_jun_2016_11.41.56_64.png",
            "thumb_80": "https:\/\/files.slack.com\/files-tmb\/T0BLJ117W-F1FP74U0N-d813329c7f\/simulator_screen_shot_10_jun_2016_11.41.56_80.png",
            "thumb_360": "https:\/\/files.slack.com\/files-tmb\/T0BLJ117W-F1FP74U0N-d813329c7f\/simulator_screen_shot_10_jun_2016_11.41.56_360.png",
            "thumb_360_w": 202,
            "thumb_360_h": 360,
            "thumb_480": "https:\/\/files.slack.com\/files-tmb\/T0BLJ117W-F1FP74U0N-d813329c7f\/simulator_screen_shot_10_jun_2016_11.41.56_480.png",
            "thumb_480_w": 270,
            "thumb_480_h": 480,
            "thumb_160": "https:\/\/files.slack.com\/files-tmb\/T0BLJ117W-F1FP74U0N-d813329c7f\/simulator_screen_shot_10_jun_2016_11.41.56_160.png",
            "thumb_720": "https:\/\/files.slack.com\/files-tmb\/T0BLJ117W-F1FP74U0N-d813329c7f\/simulator_screen_shot_10_jun_2016_11.41.56_720.png",
            "thumb_720_w": 405,
            "thumb_720_h": 720,
            "thumb_960": "https:\/\/files.slack.com\/files-tmb\/T0BLJ117W-F1FP74U0N-d813329c7f\/simulator_screen_shot_10_jun_2016_11.41.56_960.png",
            "thumb_960_w": 540,
            "thumb_960_h": 960,
            "thumb_1024": "https:\/\/files.slack.com\/files-tmb\/T0BLJ117W-F1FP74U0N-d813329c7f\/simulator_screen_shot_10_jun_2016_11.41.56_1024.png",
            "thumb_1024_w": 576,
            "thumb_1024_h": 1024,
            "image_exif_rotation": 1,
            "original_w": 750,
            "original_h": 1334,
            "permalink": "https:\/\/here-ios.slack.com\/files\/przemyslawinski\/F1FP74U0N\/simulator_screen_shot_10_jun_2016_11.41.56.png",
            "permalink_public": "https:\/\/slack-files.com\/T0BLJ117W-F1FP74U0N-97af3b4ae2",
            "channels": [
                "C0BLJ11AQ"
            ],
            "groups": [

            ],
            "ims": [

            ],
            "comments_count": 0
        },
        {
            "id": "F1FNJ38MT",
            "created": 1465544847,
            "timestamp": 1465544847,
            "name": "Screen Shot 2016-06-10 at 09.46.53.png",
            "title": "Screen Shot 2016-06-10 at 09.46.53.png",
            "mimetype": "image\/png",
            "filetype": "png",
            "pretty_type": "PNG",
            "user": "U0KG5UZ8X",
            "editable": false,
            "size": 46673,
            "mode": "hosted",
            "is_external": false,
            "external_type": "",
            "is_public": true,
            "public_url_shared": false,
            "display_as_bot": false,
            "username": "",
            "url_private": "https:\/\/files.slack.com\/files-pri\/T0BLJ117W-F1FNJ38MT\/screen_shot_2016-06-10_at_09.46.53.png",
            "url_private_download": "https:\/\/files.slack.com\/files-pri\/T0BLJ117W-F1FNJ38MT\/download\/screen_shot_2016-06-10_at_09.46.53.png",
            "thumb_64": "https:\/\/files.slack.com\/files-tmb\/T0BLJ117W-F1FNJ38MT-9597f95975\/screen_shot_2016-06-10_at_09.46.53_64.png",
            "thumb_80": "https:\/\/files.slack.com\/files-tmb\/T0BLJ117W-F1FNJ38MT-9597f95975\/screen_shot_2016-06-10_at_09.46.53_80.png",
            "thumb_360": "https:\/\/files.slack.com\/files-tmb\/T0BLJ117W-F1FNJ38MT-9597f95975\/screen_shot_2016-06-10_at_09.46.53_360.png",
            "thumb_360_w": 360,
            "thumb_360_h": 93,
            "thumb_480": "https:\/\/files.slack.com\/files-tmb\/T0BLJ117W-F1FNJ38MT-9597f95975\/screen_shot_2016-06-10_at_09.46.53_480.png",
            "thumb_480_w": 480,
            "thumb_480_h": 124,
            "thumb_160": "https:\/\/files.slack.com\/files-tmb\/T0BLJ117W-F1FNJ38MT-9597f95975\/screen_shot_2016-06-10_at_09.46.53_160.png",
            "thumb_720": "https:\/\/files.slack.com\/files-tmb\/T0BLJ117W-F1FNJ38MT-9597f95975\/screen_shot_2016-06-10_at_09.46.53_720.png",
            "thumb_720_w": 720,
            "thumb_720_h": 186,
            "thumb_960": "https:\/\/files.slack.com\/files-tmb\/T0BLJ117W-F1FNJ38MT-9597f95975\/screen_shot_2016-06-10_at_09.46.53_960.png",
            "thumb_960_w": 960,
            "thumb_960_h": 248,
            "image_exif_rotation": 1,
            "original_w": 982,
            "original_h": 254,
            "permalink": "https:\/\/here-ios.slack.com\/files\/mircea.gindulescu\/F1FNJ38MT\/screen_shot_2016-06-10_at_09.46.53.png",
            "permalink_public": "https:\/\/slack-files.com\/T0BLJ117W-F1FNJ38MT-36af9574a9",
            "channels": [
                "C0BLLA8G5"
            ],
            "groups": [

            ],
            "ims": [

            ],
            "comments_count": 0
        },
        {
            "id": "F1FM345L3",
            "created": 1465544763,
            "timestamp": 1465544763,
            "name": "Screenshot 2016-06-10 09.45.58.png",
            "title": "Screenshot 2016-06-10 09.45.58.png",
            "mimetype": "image\/png",
            "filetype": "png",
            "pretty_type": "PNG",
            "user": "U0BLHVC4B",
            "editable": false,
            "size": 9725,
            "mode": "external",
            "is_external": true,
            "external_type": "dropbox",
            "is_public": true,
            "public_url_shared": false,
            "display_as_bot": false,
            "username": "",
            "url_private": "https:\/\/www.dropbox.com\/s\/axlv96kd0as60dk\/Screenshot%202016-06-10%2009.45.58.png?dl=0",
            "thumb_64": "https:\/\/files.slack.com\/files-tmb\/T0BLJ117W-F1FM345L3-0b2f265fdb\/screenshot_2016-06-10_09.45.58_64.png",
            "thumb_80": "https:\/\/files.slack.com\/files-tmb\/T0BLJ117W-F1FM345L3-0b2f265fdb\/screenshot_2016-06-10_09.45.58_80.png",
            "thumb_360": "https:\/\/files.slack.com\/files-tmb\/T0BLJ117W-F1FM345L3-0b2f265fdb\/screenshot_2016-06-10_09.45.58_360.png",
            "thumb_360_w": 272,
            "thumb_360_h": 103,
            "thumb_160": "https:\/\/files.slack.com\/files-tmb\/T0BLJ117W-F1FM345L3-0b2f265fdb\/screenshot_2016-06-10_09.45.58_160.png",
            "image_exif_rotation": 1,
            "original_w": 272,
            "original_h": 103,
            "permalink": "https:\/\/here-ios.slack.com\/files\/daniel.barden\/F1FM345L3\/screenshot_2016-06-10_09.45.58.png",
            "channels": [
                "C0BLLA8G5"
            ],
            "groups": [

            ],
            "ims": [

            ],
            "comments_count": 0
        },
        {
            "id": "F1FDESZJT",
            "created": 1465471487,
            "timestamp": 1465471487,
            "name": "IMG_1621.PNG",
            "title": "IMG_1621.PNG",
            "mimetype": "image\/png",
            "filetype": "png",
            "pretty_type": "PNG",
            "user": "U0BM04G1F",
            "editable": false,
            "size": 103737,
            "mode": "hosted",
            "is_external": false,
            "external_type": "",
            "is_public": true,
            "public_url_shared": false,
            "display_as_bot": false,
            "username": "",
            "url_private": "https:\/\/files.slack.com\/files-pri\/T0BLJ117W-F1FDESZJT\/img_1621.png",
            "url_private_download": "https:\/\/files.slack.com\/files-pri\/T0BLJ117W-F1FDESZJT\/download\/img_1621.png",
            "thumb_64": "https:\/\/files.slack.com\/files-tmb\/T0BLJ117W-F1FDESZJT-8e4ba94c03\/img_1621_64.png",
            "thumb_80": "https:\/\/files.slack.com\/files-tmb\/T0BLJ117W-F1FDESZJT-8e4ba94c03\/img_1621_80.png",
            "thumb_360": "https:\/\/files.slack.com\/files-tmb\/T0BLJ117W-F1FDESZJT-8e4ba94c03\/img_1621_360.png",
            "thumb_360_w": 360,
            "thumb_360_h": 238,
            "thumb_480": "https:\/\/files.slack.com\/files-tmb\/T0BLJ117W-F1FDESZJT-8e4ba94c03\/img_1621_480.png",
            "thumb_480_w": 480,
            "thumb_480_h": 317,
            "thumb_160": "https:\/\/files.slack.com\/files-tmb\/T0BLJ117W-F1FDESZJT-8e4ba94c03\/img_1621_160.png",
            "thumb_720": "https:\/\/files.slack.com\/files-tmb\/T0BLJ117W-F1FDESZJT-8e4ba94c03\/img_1621_720.png",
            "thumb_720_w": 720,
            "thumb_720_h": 476,
            "image_exif_rotation": 1,
            "original_w": 750,
            "original_h": 496,
            "permalink": "https:\/\/here-ios.slack.com\/files\/choefele\/F1FDESZJT\/img_1621.png",
            "permalink_public": "https:\/\/slack-files.com\/T0BLJ117W-F1FDESZJT-0d6f7ab3e4",
            "channels": [
                "C0BLLA8G5"
            ],
            "groups": [

            ],
            "ims": [

            ],
            "comments_count": 1,
            "initial_comment": {
                "id": "Fc1FD4QRE0",
                "created": 1465471487,
                "timestamp": 1465471487,
                "user": "U0BM04G1F",
                "is_intro": true,
                "comment": "Twitter is taking the piss",
                "channel": ""
            }
        }
    ],
    "paging": {
        "count": 10,
        "total": 360,
        "page": 1,
        "pages": 36
    }
}